Using bundled data in bibliomatrix
…
Unit info (meta)

library(bibliomatrix)
library(dplyr)

# To show the units included in the ABM, use either abm_public_kth$meta or the unit_info() function.
# (If no database connection is given to unit_info), abm_public_kth$meta is used anyway)
identical(unit_info(), abm_public_kth$meta)
#> [1] TRUE

unit_info()
#> # A tibble: 34 × 20
#>    analysis_id Diva_org_id unit_code unit_short unit_long_en                    
#>          <int>       <int> <chr>     <chr>      <chr>                           
#>  1          11         177 KTH       KTH        KTH Royal Institute of Technolo…
#>  2          11        5850 A         ABE        School of Architecture and the …
#>  3          11        5851 5851      <NA>       Architecture                    
#>  4          11        5857 5857      <NA>       Civil and Architectural Enginee…
#>  5          11      875600 875600    <NA>       Philosophy and History          
#>  6          11        5869 5869      <NA>       Real Estate and Construction Ma…
#>  7          11       13604 13604     <NA>       Sustainable development, Enviro…
#>  8          11        5884 5884      <NA>       Urban Planning and Environment  
#>  9          11      879223 E         EECS       School of Electrical Engineerin…
#> 10          11      882650 882650    <NA>       Computer Science                
#> # ℹ 24 more rows
#> # ℹ 15 more variables: unit_long_en_indent1 <chr>, unit_long_en_indent2 <chr>,
#> #   unit_long_sv <chr>, parent_org_id <int>, org_level <int>, active <int>,
#> #   description_en <chr>, kthid <chr>, slug <chr>, altmetric_desc <chr>,
#> #   altmetric_count <dbl>, altmetric_href <chr>, altmetric_id <chr>,
#> #   altmetric_level <chr>, sort_order <int>
…
