Using bundled data in bibliomatrix
…
Unit info (meta)

library(bibliomatrix)
library(dplyr)

# To show the units included in the ABM, use either abm_public_kth$meta or the unit_info() function.
# (If no database connection is given to unit_info), abm_public_kth$meta is used anyway)
identical(unit_info(), abm_public_kth$meta)
#> [1] TRUE

unit_info()
#> # A tibble: 34 x 20
#>    analysis_id Diva_or~1 unit_~2 unit_~3 unit_~4 unit_~5 unit_~6 unit_~7 paren~8
#>          <int>     <int> <chr>   <chr>   <chr>   <chr>   <chr>   <chr>     <int>
#>  1           6       177 KTH     KTH     KTH Ro~ "KTH R~ "KTH R~ "Kungl~      NA
#>  2           6      5850 A       ABE     School~ "    S~ "\u00a~ "Skola~     177
#>  3           6      5851 5851    <NA>    Archit~ "     ~ "\u00a~ "Arkit~    5850
#>  4           6      5857 5857    <NA>    Civil ~ "     ~ "\u00a~ "Byggv~    5850
#>  5           6    875600 875600  <NA>    Philos~ "     ~ "\u00a~ "Filos~    5850
#>  6           6      5869 5869    <NA>    Real E~ "     ~ "\u00a~ "Fasti~    5850
#>  7           6     13604 13604   <NA>    Sustai~ "     ~ "\u00a~ "H\u00~    5850
#>  8           6      5884 5884    <NA>    Urban ~ "     ~ "\u00a~ "Samh\~    5850
#>  9           6    879223 E       EECS    School~ "    S~ "\u00a~ "Skola~     177
#> 10           6    882650 882650  <NA>    Comput~ "     ~ "\u00a~ "Datav~  879223
#> # ... with 24 more rows, 11 more variables: org_level <int>, active <int>,
#> #   description_en <chr>, kthid <chr>, slug <chr>, altmetric_desc <chr>,
#> #   altmetric_count <dbl>, altmetric_href <chr>, altmetric_id <chr>,
#> #   altmetric_level <chr>, sort_order <int>, and abbreviated variable names
#> #   1: Diva_org_id, 2: unit_code, 3: unit_short, 4: unit_long_en,
#> #   5: unit_long_en_indent1, 6: unit_long_en_indent2, 7: unit_long_sv,
#> #   8: parent_org_id
…
