Using bundled data in `bibliomatrix` • bibliomatrix
…
The bibliomatrix package includes data from the KTH Annual Bibliometric Monitoring (ABM) public part, including KTH as a whole, its five schools and about 30 departments. The dataset, named abm_public_kth, is a list with three entries: meta, units and pubtype_order.

Unit info (meta)

library(bibliomatrix)
library(dplyr)

# To show the units included in the ABM, use either abm_public_kth$meta or the unit_info() function.
# (If no database connection is given to unit_info), abm_public_kth$meta is used anyway)
identical(unit_info(), abm_public_kth$meta)
#> [1] TRUE

unit_info()
#> # A tibble: 35 x 19
#>    Diva_org_id unit_code unit_short unit_long_en unit_long_sv parent_org_id
#>          <int> <chr>     <chr>      <chr>        <chr>                <int>
#>  1         177 KTH       KTH        KTH Royal I… Kungliga Te…            NA
#>  2        5850 A         ABE        School of A… Skolan för …           177
#>  3        5851 5851      <NA>       Architecture Arkitektur            5850
#>  4        5857 5857      <NA>       Civil and A… Byggvetensk…          5850
#>  5      875600 875600    <NA>       Philosophy … Filosofi oc…          5850
#>  6        5869 5869      <NA>       Real Estate… Fastigheter…          5850
#>  7       13604 13604     <NA>       Sustainable… Hållbar utv…          5850
#>  8        5884 5884      <NA>       Urban Plann… Samhällspla…          5850
#>  9      879223 E         EECS       School of E… Skolan för …           177
#> 10      882650 882650    <NA>       Computer Sc… Datavetensk…        879223
#> # … with 25 more rows, and 13 more variables: org_level <int>, active <int>,
#> #   description_en <chr>, kthid <chr>, slug <chr>, unit_long_en_indent1 <chr>,
#> #   unit_long_en_indent2 <chr>, altmetric_desc <chr>, altmetric_count <dbl>,
#> #   altmetric_href <chr>, altmetric_id <chr>, altmetric_level <chr>,
#> #   sort_order <int>
…
